…
    ## ✔ ggplot2 3.2.1     ✔ purrr   0.3.2
    ## ✔ tibble  2.1.3     ✔ dplyr   0.8.3
    ## ✔ tidyr   1.0.0     ✔ stringr 1.4.0
    ## ✔ readr   1.3.1     ✔ forcats 0.4.0

    ## ── Conflicts ─────────────────────────────────────────────────────────────────────────────────────────────────────────── tidyverse_conflicts() ──
    ## ✖ dplyr::filter() masks stats::filter()
    ## ✖ dplyr::lag()    masks stats::lag()

``` r
#make a data frame into a tibble
as_tibble(iris)
```

    ## # A tibble: 150 x 5
    ##    Sepal.Length Sepal.Width Petal.Length Petal.Width Species
    ##           <dbl>       <dbl>        <dbl>       <dbl> <fct>  
    ##  1          5.1         3.5          1.4         0.2 setosa 
    ##  2          4.9         3            1.4         0.2 setosa 
    ##  3          4.7         3.2          1.3         0.2 setosa 
    ##  4          4.6         3.1          1.5         0.2 setosa 
    ##  5          5           3.6          1.4         0.2 setosa 
    ##  6          5.4         3.9          1.7         0.4 setosa 
    ##  7          4.6         3.4          1.4         0.3 setosa 
    ##  8          5           3.4          1.5         0.2 setosa 
    ##  9          4.4         2.9          1.4         0.2 setosa 
    ## 10          4.9         3.1          1.5         0.1 setosa 
    ## # … with 140 more rows
…
    ## Warning: 1000 parsing failures.
    ##  row col           expected     actual                                                                           file
    ## 1001   y 1/0/T/F/TRUE/FALSE 2015-01-16 '/home/duke/R/x86_64-redhat-linux-gnu-library/3.6/readr/extdata/challenge.csv'
    ## 1002   y 1/0/T/F/TRUE/FALSE 2018-05-18 '/home/duke/R/x86_64-redhat-linux-gnu-library/3.6/readr/extdata/challenge.csv'
    ## 1003   y 1/0/T/F/TRUE/FALSE 2015-09-05 '/home/duke/R/x86_64-redhat-linux-gnu-library/3.6/readr/extdata/challenge.csv'
    ## 1004   y 1/0/T/F/TRUE/FALSE 2012-11-28 '/home/duke/R/x86_64-redhat-linux-gnu-library/3.6/readr/extdata/challenge.csv'
    ## 1005   y 1/0/T/F/TRUE/FALSE 2020-01-13 '/home/duke/R/x86_64-redhat-linux-gnu-library/3.6/readr/extdata/challenge.csv'
    ## .... ... .................. .......... ..............................................................................
    ## See problems(...) for more details.

``` r
problems(challenge)
```

    ## # A tibble: 1,000 x 5
    ##      row col   expected      actual   file                                 
    ##    <int> <chr> <chr>         <chr>    <chr>                                
    ##  1  1001 y     1/0/T/F/TRUE… 2015-01… '/home/duke/R/x86_64-redhat-linux-gn…
    ##  2  1002 y     1/0/T/F/TRUE… 2018-05… '/home/duke/R/x86_64-redhat-linux-gn…
    ##  3  1003 y     1/0/T/F/TRUE… 2015-09… '/home/duke/R/x86_64-redhat-linux-gn…
    ##  4  1004 y     1/0/T/F/TRUE… 2012-11… '/home/duke/R/x86_64-redhat-linux-gn…
    ##  5  1005 y     1/0/T/F/TRUE… 2020-01… '/home/duke/R/x86_64-redhat-linux-gn…
    ##  6  1006 y     1/0/T/F/TRUE… 2016-04… '/home/duke/R/x86_64-redhat-linux-gn…
    ##  7  1007 y     1/0/T/F/TRUE… 2011-05… '/home/duke/R/x86_64-redhat-linux-gn…
    ##  8  1008 y     1/0/T/F/TRUE… 2020-07… '/home/duke/R/x86_64-redhat-linux-gn…
    ##  9  1009 y     1/0/T/F/TRUE… 2011-04… '/home/duke/R/x86_64-redhat-linux-gn…
    ## 10  1010 y     1/0/T/F/TRUE… 2010-05… '/home/duke/R/x86_64-redhat-linux-gn…
    ## # … with 990 more rows
…
``` r
challenge2 <- read_csv(readr_example("challenge.csv"), guess_max = 1001)
```

    ## Parsed with column specification:
    ## cols(
    ##   x = col_double(),
    ##   y = col_date(format = "")
    ## )

``` r
challenge2
```

    ## # A tibble: 2,000 x 2
    ##        x y         
    ##    <dbl> <date>    
    ##  1   404 NA        
    ##  2  4172 NA        
    ##  3  3004 NA        
    ##  4   787 NA        
    ##  5    37 NA        
    ##  6  2332 NA        
    ##  7  2489 NA        
    ##  8  1449 NA        
    ##  9  3665 NA        
    ## 10  3863 NA        
    ## # … with 1,990 more rows
…
    ## # A tibble: 3 x 2
    ##       x     y
    ##   <dbl> <dbl>
    ## 1     1  1.21
    ## 2     2  2.32
    ## 3     3  4.56

``` r
write_csv(challenge, "challenge.csv")

challenge
```

    ## # A tibble: 2,000 x 2
    ##        x y         
    ##    <dbl> <date>    
    ##  1   404 NA        
    ##  2  4172 NA        
    ##  3  3004 NA        
    ##  4   787 NA        
    ##  5    37 NA        
    ##  6  2332 NA        
    ##  7  2489 NA        
    ##  8  1449 NA        
    ##  9  3665 NA        
    ## 10  3863 NA        
    ## # … with 1,990 more rows
…
    ## Warning: 1000 parsing failures.
    ##  row col           expected     actual              file
    ## 1001   y 1/0/T/F/TRUE/FALSE 2015-01-16 'challenge-2.csv'
    ## 1002   y 1/0/T/F/TRUE/FALSE 2018-05-18 'challenge-2.csv'
    ## 1003   y 1/0/T/F/TRUE/FALSE 2015-09-05 'challenge-2.csv'
    ## 1004   y 1/0/T/F/TRUE/FALSE 2012-11-28 'challenge-2.csv'
    ## 1005   y 1/0/T/F/TRUE/FALSE 2020-01-13 'challenge-2.csv'
    ## .... ... .................. .......... .................
    ## See problems(...) for more details.

    ## # A tibble: 2,000 x 2
    ##        x y    
    ##    <dbl> <lgl>
    ##  1   404 NA   
    ##  2  4172 NA   
    ##  3  3004 NA   
    ##  4   787 NA   
    ##  5    37 NA   
    ##  6  2332 NA   
    ##  7  2489 NA   
    ##  8  1449 NA   
    ##  9  3665 NA   
    ## 10  3863 NA   
    ## # … with 1,990 more rows

``` r
write_rds(challenge, "challenge.rds")
read_rds("challenge.rds")
```

    ## # A tibble: 2,000 x 2
    ##        x y         
    ##    <dbl> <date>    
    ##  1   404 NA        
    ##  2  4172 NA        
    ##  3  3004 NA        
    ##  4   787 NA        
    ##  5    37 NA        
    ##  6  2332 NA        
    ##  7  2489 NA        
    ##  8  1449 NA        
    ##  9  3665 NA        
    ## 10  3863 NA        
    ## # … with 1,990 more rows

``` r
library(feather)
write_feather(challenge, "challenge.feather")
read_feather("challenge.feather")
```

    ## # A tibble: 2,000 x 2
    ##        x y         
    ##    <dbl> <date>    
    ##  1   404 NA        
    ##  2  4172 NA        
    ##  3  3004 NA        
    ##  4   787 NA        
    ##  5    37 NA        
    ##  6  2332 NA        
    ##  7  2489 NA        
    ##  8  1449 NA        
    ##  9  3665 NA        
    ## 10  3863 NA        
    ## # … with 1,990 more rows
